<svg width="79" height="79" viewBox="0 0 79 79" fill="none" xmlns="http://www.w3.org/2000/svg">
<circle cx="39.354" cy="39.3457" r="39.3457" fill="#00BFA6"/>
<path d="M39.1068 38.4766C42.0625 38.4766 44.6218 37.4165 46.713 35.325C48.8042 33.2338 49.8643 30.6752 49.8643 27.7192C49.8643 24.7642 48.8042 22.2052 46.7127 20.1133C44.6212 18.0225 42.0621 16.9624 39.1068 16.9624C36.1508 16.9624 33.5921 18.0225 31.501 20.1137C29.4098 22.2049 28.3494 24.7639 28.3494 27.7192C28.3494 30.6752 29.4098 33.2342 31.5013 35.3254C33.5928 37.4162 36.1518 38.4766 39.1068 38.4766Z" fill="white"/>
<path fill-rule="evenodd" clip-rule="evenodd" d="M39.8167 46.53L31.8508 38.9808C31.2945 38.6542 30.9415 38.5361 30.5793 38.5361C29.4181 38.5361 28.3331 38.7328 27.3541 39.1205C26.3721 39.5093 25.5219 40.0433 24.8271 40.7081C24.1637 41.3432 23.5718 42.1143 23.0689 42.9999C22.584 43.8535 22.1914 44.7439 21.9025 45.6465C21.6234 46.5192 21.39 47.4736 21.2087 48.4836C21.0291 49.4847 20.9072 50.4344 20.8468 51.3067C20.7876 52.1613 20.7576 53.0483 20.7576 53.9441C20.7576 56.2755 21.4987 58.1629 22.9602 59.5548C24.4036 60.9284 26.3135 61.6252 28.636 61.6252H50.1414C52.4639 61.6252 54.3732 60.9287 55.8169 59.5548C57.2787 58.1639 58.0199 56.2762 58.0199 53.9437C58.0195 53.0438 57.9892 52.1562 57.9296 51.3057C57.8693 50.4354 57.7473 49.4861 57.5677 48.4836C57.3864 47.4736 57.153 46.5189 56.8736 45.6462C56.585 44.7442 56.1924 43.8535 55.7072 42.9999C55.2036 42.114 54.612 41.3425 53.9482 40.7077C53.2541 40.0436 52.4043 39.5097 51.4216 39.1202C50.4423 38.7328 49.357 38.5365 48.1961 38.5365C48.0115 38.5365 47.8294 38.5671 47.6214 38.6404L39.8167 46.53ZM47.311 44.7144H50.0032V47.4066H52.6957V50.0988H50.0032V52.791H47.311V50.0988H44.6192V47.4066H47.311V44.7144Z" fill="white"/>
</svg>
